%YAML 1.1
%TAG !u! tag:unity3d.com,2011:
--- !u!114 &11400000
MonoBehaviour:
  m_ObjectHideFlags: 0
  m_PrefabParentObject: {fileID: 0}
  m_PrefabInternal: {fileID: 0}
  m_GameObject: {fileID: 0}
  m_Enabled: 1
  m_EditorHideFlags: 0
  m_Script: {fileID: 11500000, guid: 8bc76f91836c4754fb581107b11c9651, type: 3}
  m_Name: StatsData
  m_EditorClassIdentifier: 
  statsRelation:
  - statType: 0
    statValue: 10
  - statType: 1
    statValue: 10
  - statType: 2
    statValue: 12
  - statType: 3
    statValue: 1.5
  - statType: 4
    statValue: 1.5
  - statType: 21
    statValue: 0.01
  statDifference: 0.1
  minStat:
  - statType: 20
    statValue: 0.1
  - statType: 19
    statValue: 0.15
  - statType: 18
    statValue: 0.05
  - statType: 17
    statValue: 0.05
  - statType: 16
    statValue: 0.25
  - statType: 15
    statValue: 0.25
  - statType: 14
    statValue: 0.25
  - statType: 13
    statValue: 0.25
  - statType: 12
    statValue: 0.05
  - statType: 11
    statValue: 0.05
  - statType: 10
    statValue: 0.3
  - statType: 9
    statValue: 0.15
  - statType: 8
    statValue: 0.15
  - statType: 7
    statValue: 0.3
  - statType: 6
    statValue: 0.025
  - statType: 5
    statValue: 0.5
  - statType: 21
    statValue: 0.01
  maxStat:
  - statType: 20
    statValue: 0.15
  - statType: 19
    statValue: 0.2
  - statType: 18
    statValue: 0.1
  - statType: 17
    statValue: 0.1
  - statType: 16
    statValue: 0.5
  - statType: 15
    statValue: 0.5
  - statType: 14
    statValue: 0.5
  - statType: 13
    statValue: 0.5
  - statType: 12
    statValue: 0.07
  - statType: 11
    statValue: 0.07
  - statType: 10
    statValue: 0.5
  - statType: 9
    statValue: 0.2
  - statType: 8
    statValue: 0.2
  - statType: 7
    statValue: 0.5
  - statType: 6
    statValue: 0.05
  - statType: 5
    statValue: 1
  - statType: 21
    statValue: 0.05
  roundToNearest:
  - statType: 20
    statValue: 0.01
  - statType: 19
    statValue: 0.01
  - statType: 18
    statValue: 0.01
  - statType: 17
    statValue: 0.01
  - statType: 16
    statValue: 0.05
  - statType: 15
    statValue: 0.05
  - statType: 14
    statValue: 0.05
  - statType: 13
    statValue: 0.05
  - statType: 12
    statValue: 0.01
  - statType: 11
    statValue: 0.01
  - statType: 10
    statValue: 0.05
  - statType: 9
    statValue: 0.01
  - statType: 8
    statValue: 0.01
  - statType: 7
    statValue: 0.05
  - statType: 6
    statValue: 0.005
  - statType: 5
    statValue: 0.1
  - statType: 21
    statValue: 0.01
