%YAML 1.1
%TAG !u! tag:unity3d.com,2011:
--- !u!114 &11400000
MonoBehaviour:
  m_ObjectHideFlags: 0
  m_PrefabParentObject: {fileID: 0}
  m_PrefabInternal: {fileID: 0}
  m_GameObject: {fileID: 0}
  m_Enabled: 1
  m_EditorHideFlags: 0
  m_Script: {fileID: 11500000, guid: 9f31fc4941f5f18468e6729f1215c0ae, type: 3}
  m_Name: BattleStatusData
  m_EditorClassIdentifier: 
  unableToAttackBool: {fileID: 11400000, guid: 43d241eef8ee9b4418d3b0db5d70cb3f, type: 2}
  reflectDamagePercent: {fileID: 11400000, guid: 276ac6a6324ea2e4e9c3f6ed06b00d01,
    type: 2}
  reflectHealingPercent: {fileID: 11400000, guid: f3b84230d8278244fae68d8854bde0d7,
    type: 2}
  preventHealingBool: {fileID: 11400000, guid: ea3d1632c185d914bacc88a7b7756811, type: 2}
  defenceChange: {fileID: 11400000, guid: b93db35d61c949c49835f926bac065d2, type: 2}
