%YAML 1.1
%TAG !u! tag:unity3d.com,2011:
--- !u!114 &11400000
MonoBehaviour:
  m_ObjectHideFlags: 0
  m_PrefabParentObject: {fileID: 0}
  m_PrefabInternal: {fileID: 0}
  m_GameObject: {fileID: 0}
  m_Enabled: 1
  m_EditorHideFlags: 0
  m_Script: {fileID: 11500000, guid: 5d822af39c73b984aba6a186f2baf81c, type: 3}
  m_Name: BattleUIManager
  m_EditorClassIdentifier: 
  prefab: {fileID: 1984266802814548, guid: ddf72dc3aa73d0f4b92b89fba1670d8b, type: 2}
  maxHP: {fileID: 11400000, guid: a13289393a30e4e40867d56d091ac1f9, type: 2}
  currentHP: {fileID: 11400000, guid: 55aa6fc0157183748ba5eba49175fb58, type: 2}
  myName: {fileID: 11400000, guid: 5fe0a8f7a54504645bfe9e55e3ebf345, type: 2}
  posOffset: {x: 0, y: 90, z: 0}
  showUpdatedUI: 0
