%YAML 1.1
%TAG !u! tag:unity3d.com,2011:
--- !u!114 &11400000
MonoBehaviour:
  m_ObjectHideFlags: 0
  m_PrefabParentObject: {fileID: 0}
  m_PrefabInternal: {fileID: 0}
  m_GameObject: {fileID: 0}
  m_Enabled: 1
  m_EditorHideFlags: 0
  m_Script: {fileID: 11500000, guid: 46b5fe56533ba124fb3a26279462a00f, type: 3}
  m_Name: DamageAfterReductionFormula
  m_EditorClassIdentifier: 
  lhs: {fileID: 11400000, guid: 458521d917b8b974f8b59506ff518bc7, type: 2}
  op: {fileID: 11400000, guid: 4ca6f842d7d164040ab7ead481c05328, type: 2}
  rhs: {fileID: 11400000, guid: 6dd271ebd1710d04d8c64383068af349, type: 2}
