%YAML 1.1
%TAG !u! tag:unity3d.com,2011:
--- !u!114 &11400000
MonoBehaviour:
  m_ObjectHideFlags: 0
  m_PrefabParentObject: {fileID: 0}
  m_PrefabInternal: {fileID: 0}
  m_GameObject: {fileID: 0}
  m_Enabled: 1
  m_EditorHideFlags: 0
  m_Script: {fileID: 11500000, guid: b2b12dbb20567eb40a863343d6a03c8f, type: 3}
  m_Name: Shrine Spawner
  m_EditorClassIdentifier: 
  spawns: []
  minSpawnDistance: 100
  maxSpawnDistance: 500
