%YAML 1.1
%TAG !u! tag:unity3d.com,2011:
--- !u!114 &11400000
MonoBehaviour:
  m_ObjectHideFlags: 0
  m_PrefabParentObject: {fileID: 0}
  m_PrefabInternal: {fileID: 0}
  m_GameObject: {fileID: 0}
  m_Enabled: 1
  m_EditorHideFlags: 0
  m_Script: {fileID: 11500000, guid: 780c80760a47faa4cb2b793866f2b01e, type: 3}
  m_Name: ArcaneTackleEffect
  m_EditorClassIdentifier: 
  formula: {fileID: 11400000, guid: 5059ecae77257524e8252b3a52014248, type: 2}
  referenceType: {fileID: 0}
  referenceValue: 0
  numberOfTurns: 1
  targetType: {fileID: 11400000, guid: 607087b236284a5408ba389663a8e9df, type: 2}
