%YAML 1.1
%TAG !u! tag:unity3d.com,2011:
--- !u!114 &11400000
MonoBehaviour:
  m_ObjectHideFlags: 0
  m_PrefabParentObject: {fileID: 0}
  m_PrefabInternal: {fileID: 0}
  m_GameObject: {fileID: 0}
  m_Enabled: 1
  m_EditorHideFlags: 0
  m_Script: {fileID: 11500000, guid: da38c2d5f92478b438f5a38a74ae1653, type: 3}
  m_Name: NonOrbFromTargetDamage
  m_EditorClassIdentifier: 
  formula: {fileID: 11400000, guid: e6dafd08eb65dda48b317a9ef5e0820f, type: 2}
  toAssign: {fileID: 0}
  isTargetingSelf: 1
