%YAML 1.1
%TAG !u! tag:unity3d.com,2011:
--- !u!114 &11400000
MonoBehaviour:
  m_ObjectHideFlags: 0
  m_PrefabParentObject: {fileID: 0}
  m_PrefabInternal: {fileID: 0}
  m_GameObject: {fileID: 0}
  m_Enabled: 1
  m_EditorHideFlags: 0
  m_Script: {fileID: 11500000, guid: 46b5fe56533ba124fb3a26279462a00f, type: 3}
  m_Name: 1DivideBaseComparisonXAggressorLevel
  m_EditorClassIdentifier: 
  lhs: {fileID: 11400000, guid: 0c02153cdbb3e18458e5573cf499f0d5, type: 2}
  op: {fileID: 11400000, guid: 38ffe1e2d22ce6147b1c54f08ea60b02, type: 2}
  rhs: {fileID: 11400000, guid: 5175b928c6871f84097505a585aecbd6, type: 2}
