%YAML 1.1
%TAG !u! tag:unity3d.com,2011:
--- !u!114 &11400000
MonoBehaviour:
  m_ObjectHideFlags: 0
  m_PrefabParentObject: {fileID: 0}
  m_PrefabInternal: {fileID: 0}
  m_GameObject: {fileID: 0}
  m_Enabled: 1
  m_EditorHideFlags: 0
  m_Script: {fileID: 11500000, guid: 7644c71be8b31804e8b5475ff97d2b77, type: 3}
  m_Name: OrbData Balance
  m_EditorClassIdentifier: 
  OrbAData:
    attributeType: {fileID: 11400000, guid: 9bd0490a74b3817458df1a154075d907, type: 2}
    attributeValue: 25
  OrbBData:
    attributeType: {fileID: 11400000, guid: 1ef2fa7df0514af49b931dcde90ef927, type: 2}
    attributeValue: 25
  OrbCData:
    attributeType: {fileID: 11400000, guid: 7fe609e120943dc4993114e5cba6a964, type: 2}
    attributeValue: 25
  orbTypes:
  - {fileID: 11400000, guid: 2be7acc03799d584388def1921e9aabc, type: 2}
  - {fileID: 11400000, guid: 783ded7e8d6db8c439bf9a3595f9ae3a, type: 2}
  - {fileID: 11400000, guid: ee022e8c746c9c84cb3be1d6b0bf8d10, type: 2}
