%YAML 1.1
%TAG !u! tag:unity3d.com,2011:
--- !u!114 &11400000
MonoBehaviour:
  m_ObjectHideFlags: 0
  m_PrefabParentObject: {fileID: 0}
  m_PrefabInternal: {fileID: 0}
  m_GameObject: {fileID: 0}
  m_Enabled: 1
  m_EditorHideFlags: 0
  m_Script: {fileID: 11500000, guid: 5cd4a6a608812dd41b2166426a6648da, type: 3}
  m_Name: OrbMonsterUnit A
  m_EditorClassIdentifier: 
  baseAttribute:
  - attributeType: {fileID: 11400000, guid: 955e12de428b4234fb1083ba5a2f929e, type: 2}
    attributeValue: 10
  - attributeType: {fileID: 11400000, guid: 446f925d7406e2443aefc4b78d8a1afa, type: 2}
    attributeValue: 10
  - attributeType: {fileID: 11400000, guid: c434513a6b202e14e8b6b4fbd2af98cc, type: 2}
    attributeValue: 10
  - attributeType: {fileID: 11400000, guid: 3fb85607ff3d17347aab19d52e40650d, type: 2}
    attributeValue: 100
  dsso: {fileID: 11400000, guid: 6424cfad558e2c24994628df07d8f15f, type: 2}
  calculator: {fileID: 11400000, guid: be7a142207ceea745bc4be6aa76fa999, type: 2}
  unitLevelOperand: {fileID: 11400000, guid: 3fb85607ff3d17347aab19d52e40650d, type: 2}
  unitCurrentHPOperand: {fileID: 11400000, guid: 55aa6fc0157183748ba5eba49175fb58,
    type: 2}
  unitMaxHPOperand: {fileID: 11400000, guid: a13289393a30e4e40867d56d091ac1f9, type: 2}
  unitDefenceOperand: {fileID: 11400000, guid: 5d0c90070e6da964f8f2ea796db13fab, type: 2}
  unitSpellEffectivenessOperand: {fileID: 11400000, guid: cc4898fbb0b05e545816963e1b056615,
    type: 2}
  BSD: {fileID: 11400000, guid: fcfc91439b9eaf44a99ec5730e465a82, type: 2}
  attributeGrowth:
  - attributeType: {fileID: 11400000, guid: 955e12de428b4234fb1083ba5a2f929e, type: 2}
    attributeValue: 1
  - attributeType: {fileID: 11400000, guid: 446f925d7406e2443aefc4b78d8a1afa, type: 2}
    attributeValue: 1
  - attributeType: {fileID: 11400000, guid: c434513a6b202e14e8b6b4fbd2af98cc, type: 2}
    attributeValue: 1
  orbsData:
  - attributeType: {fileID: 11400000, guid: 1ef2fa7df0514af49b931dcde90ef927, type: 2}
    attributeValue: 25
  - attributeType: {fileID: 11400000, guid: 9bd0490a74b3817458df1a154075d907, type: 2}
    attributeValue: 18
  orbsWeight:
  - {fileID: 11400000, guid: 783ded7e8d6db8c439bf9a3595f9ae3a, type: 2}
  - {fileID: 11400000, guid: 783ded7e8d6db8c439bf9a3595f9ae3a, type: 2}
  - {fileID: 11400000, guid: 2be7acc03799d584388def1921e9aabc, type: 2}
  - {fileID: 11400000, guid: 783ded7e8d6db8c439bf9a3595f9ae3a, type: 2}
  SDM: {fileID: 11400000, guid: f291b4f0ea8bc1644bdeae71aa7ac4ae, type: 2}
