%YAML 1.1
%TAG !u! tag:unity3d.com,2011:
--- !u!114 &11400000
MonoBehaviour:
  m_ObjectHideFlags: 0
  m_PrefabParentObject: {fileID: 0}
  m_PrefabInternal: {fileID: 0}
  m_GameObject: {fileID: 0}
  m_Enabled: 1
  m_EditorHideFlags: 0
  m_Script: {fileID: 11500000, guid: 8a14b384b042bcf4cbb35eb4aec1e951, type: 3}
  m_Name: SceneData
  m_EditorClassIdentifier: 
  createAccountScene:
    Scene: {fileID: 102900000, guid: af7e879b6073c1e4a9601855aed2eee6, type: 3}
    SceneName: CreateAccScene
    sceneIndex: 0
    sceneEnabled: 1
  mapScene:
    Scene: {fileID: 102900000, guid: cf074bf023a8d1449b528b61f41aef93, type: 3}
    SceneName: ExplorationScene
    sceneIndex: 1
    sceneEnabled: 1
