%YAML 1.1
%TAG !u! tag:unity3d.com,2011:
--- !u!114 &11400000
MonoBehaviour:
  m_ObjectHideFlags: 0
  m_PrefabParentObject: {fileID: 0}
  m_PrefabInternal: {fileID: 0}
  m_GameObject: {fileID: 0}
  m_Enabled: 1
  m_EditorHideFlags: 0
  m_Script: {fileID: 11500000, guid: 36d413dd4459c384291e804bcc67cff1, type: 3}
  m_Name: Current HP
  m_EditorClassIdentifier: 
  formula: {fileID: 11400000, guid: 99aa0a5754b60b74b83319a663760863, type: 2}
