%YAML 1.1
%TAG !u! tag:unity3d.com,2011:
--- !u!114 &11400000
MonoBehaviour:
  m_ObjectHideFlags: 0
  m_PrefabParentObject: {fileID: 0}
  m_PrefabInternal: {fileID: 0}
  m_GameObject: {fileID: 0}
  m_Enabled: 1
  m_EditorHideFlags: 0
  m_Script: {fileID: 11500000, guid: da38c2d5f92478b438f5a38a74ae1653, type: 3}
  m_Name: Stone Wall HP TargetAssignment
  m_EditorClassIdentifier: 
  formula: {fileID: 11400000, guid: 497297b10f06de74a84b2daa37141c6e, type: 2}
  toAssign: {fileID: 11400000, guid: 55aa6fc0157183748ba5eba49175fb58, type: 2}
  isTargetingSelf: 0
