%YAML 1.1
%TAG !u! tag:unity3d.com,2011:
--- !u!114 &11400000
MonoBehaviour:
  m_ObjectHideFlags: 0
  m_PrefabParentObject: {fileID: 0}
  m_PrefabInternal: {fileID: 0}
  m_GameObject: {fileID: 0}
  m_Enabled: 1
  m_EditorHideFlags: 0
  m_Script: {fileID: 11500000, guid: 46b5fe56533ba124fb3a26279462a00f, type: 3}
  m_Name: CurrentDef+DefIncrease
  m_EditorClassIdentifier: 
  lhs: {fileID: 11400000, guid: ab9b9a58385d1bc44b3730c3e27e31fb, type: 2}
  op: {fileID: 11400000, guid: dd6332f785c87774da3b485486cee144, type: 2}
  rhs: {fileID: 11400000, guid: 5d0c90070e6da964f8f2ea796db13fab, type: 2}
